%YAML 1.1
%TAG !u! tag:unity3d.com,2011:
--- !u!114 &11400000
MonoBehaviour:
  m_ObjectHideFlags: 0
  m_CorrespondingSourceObject: {fileID: 0}
  m_PrefabInstance: {fileID: 0}
  m_PrefabAsset: {fileID: 0}
  m_GameObject: {fileID: 0}
  m_Enabled: 1
  m_EditorHideFlags: 0
  m_Script: {fileID: 11500000, guid: 853d53235cfa28a4a87bb3a1970fde58, type: 3}
  m_Name: Vitality
  m_EditorClassIdentifier: 
  weapon: {fileID: 0}
  name: Vitality
  description: Increase vitality by 25%.
  upgradeType: 1
  icon: {fileID: -1857245336, guid: 6d702c0a378a2864385464be33d3c3a8, type: 3}
  healthMultiplier: 1.25
  damageMultiplier: 1
  attractorRangeMultiplier: 1
  color: {r: 0.7075472, g: 0.23028658, b: 0.23028658, a: 1}
