%YAML 1.1
%TAG !u! tag:unity3d.com,2011:
--- !u!114 &11400000
MonoBehaviour:
  m_ObjectHideFlags: 0
  m_CorrespondingSourceObject: {fileID: 0}
  m_PrefabInstance: {fileID: 0}
  m_PrefabAsset: {fileID: 0}
  m_GameObject: {fileID: 0}
  m_Enabled: 1
  m_EditorHideFlags: 0
  m_Script: {fileID: 11500000, guid: 7be22f0fa8077b549ae36fcd20df74fd, type: 3}
  m_Name: Ocher
  m_EditorClassIdentifier: 
  name: Ocher
  color: {r: 0.6784314, g: 0.4784314, b: 0.24705884, a: 0}
