%YAML 1.1
%TAG !u! tag:unity3d.com,2011:
--- !u!1001 &1853321852671151943
PrefabInstance:
  m_ObjectHideFlags: 0
  serializedVersion: 2
  m_Modification:
    m_TransformParent: {fileID: 0}
    m_Modifications:
    - target: {fileID: 1717143684008678159, guid: 2a01c57b6422c3c488d1dd68c696650f, type: 3}
      propertyPath: m_Color.b
      value: 1
      objectReference: {fileID: 0}
    - target: {fileID: 1717143684008678159, guid: 2a01c57b6422c3c488d1dd68c696650f, type: 3}
      propertyPath: m_Color.g
      value: 0.5997076
      objectReference: {fileID: 0}
    - target: {fileID: 1717143684008678159, guid: 2a01c57b6422c3c488d1dd68c696650f, type: 3}
      propertyPath: m_Color.r
      value: 0
      objectReference: {fileID: 0}
    - target: {fileID: 1717143684804144978, guid: 2a01c57b6422c3c488d1dd68c696650f, type: 3}
      propertyPath: _fillColor.b
      value: 1
      objectReference: {fileID: 0}
    - target: {fileID: 1717143684804144978, guid: 2a01c57b6422c3c488d1dd68c696650f, type: 3}
      propertyPath: _fillColor.g
      value: 0.5997076
      objectReference: {fileID: 0}
    - target: {fileID: 1717143684804144978, guid: 2a01c57b6422c3c488d1dd68c696650f, type: 3}
      propertyPath: _fillColor.r
      value: 0
      objectReference: {fileID: 0}
    - target: {fileID: 1717143684804145004, guid: 2a01c57b6422c3c488d1dd68c696650f, type: 3}
      propertyPath: m_Name
      value: Healthbar_XP
      objectReference: {fileID: 0}
    - target: {fileID: 1717143684804145005, guid: 2a01c57b6422c3c488d1dd68c696650f, type: 3}
      propertyPath: m_Pivot.x
      value: 0.5
      objectReference: {fileID: 0}
    - target: {fileID: 1717143684804145005, guid: 2a01c57b6422c3c488d1dd68c696650f, type: 3}
      propertyPath: m_Pivot.y
      value: 0.5
      objectReference: {fileID: 0}
    - target: {fileID: 1717143684804145005, guid: 2a01c57b6422c3c488d1dd68c696650f, type: 3}
      propertyPath: m_RootOrder
      value: 0
      objectReference: {fileID: 0}
    - target: {fileID: 1717143684804145005, guid: 2a01c57b6422c3c488d1dd68c696650f, type: 3}
      propertyPath: m_AnchorMax.x
      value: 0.5
      objectReference: {fileID: 0}
    - target: {fileID: 1717143684804145005, guid: 2a01c57b6422c3c488d1dd68c696650f, type: 3}
      propertyPath: m_AnchorMax.y
      value: 0.5
      objectReference: {fileID: 0}
    - target: {fileID: 1717143684804145005, guid: 2a01c57b6422c3c488d1dd68c696650f, type: 3}
      propertyPath: m_AnchorMin.x
      value: 0.5
      objectReference: {fileID: 0}
    - target: {fileID: 1717143684804145005, guid: 2a01c57b6422c3c488d1dd68c696650f, type: 3}
      propertyPath: m_AnchorMin.y
      value: 0.5
      objectReference: {fileID: 0}
    - target: {fileID: 1717143684804145005, guid: 2a01c57b6422c3c488d1dd68c696650f, type: 3}
      propertyPath: m_SizeDelta.x
      value: 40.81
      objectReference: {fileID: 0}
    - target: {fileID: 1717143684804145005, guid: 2a01c57b6422c3c488d1dd68c696650f, type: 3}
      propertyPath: m_SizeDelta.y
      value: 9.06
      objectReference: {fileID: 0}
    - target: {fileID: 1717143684804145005, guid: 2a01c57b6422c3c488d1dd68c696650f, type: 3}
      propertyPath: m_LocalPosition.x
      value: 0
      objectReference: {fileID: 0}
    - target: {fileID: 1717143684804145005, guid: 2a01c57b6422c3c488d1dd68c696650f, type: 3}
      propertyPath: m_LocalPosition.y
      value: 0
      objectReference: {fileID: 0}
    - target: {fileID: 1717143684804145005, guid: 2a01c57b6422c3c488d1dd68c696650f, type: 3}
      propertyPath: m_LocalPosition.z
      value: 0
      objectReference: {fileID: 0}
    - target: {fileID: 1717143684804145005, guid: 2a01c57b6422c3c488d1dd68c696650f, type: 3}
      propertyPath: m_LocalRotation.w
      value: 1
      objectReference: {fileID: 0}
    - target: {fileID: 1717143684804145005, guid: 2a01c57b6422c3c488d1dd68c696650f, type: 3}
      propertyPath: m_LocalRotation.x
      value: 0
      objectReference: {fileID: 0}
    - target: {fileID: 1717143684804145005, guid: 2a01c57b6422c3c488d1dd68c696650f, type: 3}
      propertyPath: m_LocalRotation.y
      value: 0
      objectReference: {fileID: 0}
    - target: {fileID: 1717143684804145005, guid: 2a01c57b6422c3c488d1dd68c696650f, type: 3}
      propertyPath: m_LocalRotation.z
      value: 0
      objectReference: {fileID: 0}
    - target: {fileID: 1717143684804145005, guid: 2a01c57b6422c3c488d1dd68c696650f, type: 3}
      propertyPath: m_AnchoredPosition.x
      value: 0
      objectReference: {fileID: 0}
    - target: {fileID: 1717143684804145005, guid: 2a01c57b6422c3c488d1dd68c696650f, type: 3}
      propertyPath: m_AnchoredPosition.y
      value: 0
      objectReference: {fileID: 0}
    - target: {fileID: 1717143684804145005, guid: 2a01c57b6422c3c488d1dd68c696650f, type: 3}
      propertyPath: m_LocalEulerAnglesHint.x
      value: 0
      objectReference: {fileID: 0}
    - target: {fileID: 1717143684804145005, guid: 2a01c57b6422c3c488d1dd68c696650f, type: 3}
      propertyPath: m_LocalEulerAnglesHint.y
      value: 0
      objectReference: {fileID: 0}
    - target: {fileID: 1717143684804145005, guid: 2a01c57b6422c3c488d1dd68c696650f, type: 3}
      propertyPath: m_LocalEulerAnglesHint.z
      value: 0
      objectReference: {fileID: 0}
    m_RemovedComponents: []
  m_SourcePrefab: {fileID: 100100000, guid: 2a01c57b6422c3c488d1dd68c696650f, type: 3}
